{
	"name": "udimi",
	"css_prefix_text": "ud-",
	"css_use_suffix": false,
	"hinting": true,
	"units_per_em": 1000,
	"ascent": 850,
	"glyphs": [
		{
			"uid": "ff6bb93c7477ecda482e95ef4398577c",
			"css": "dollar",
			"code": 59394,
			"src": "custom_icons",
			"selected": true,
			"svg": {
				"path": "M459.9 975.5C381.6 968.1 307.1 941.9 241.4 898.7 167.6 850.1 103.8 775.2 68.6 695.4 25.6 598.3 16 489.9 41.3 387 57.4 321.1 88.6 257.5 130.6 204.8 157.9 170.5 204.4 127.9 240.6 104 414.4-10.6 640.7 0 802.3 130.4 883.6 196 941.3 286.5 965.9 387 981.3 449.6 983.8 517 973.1 581.3 951.6 710.6 874.2 828 762.3 900.9 698.2 942.7 623.3 968.5 545.7 975.5 524.6 977.4 480.4 977.4 459.9 975.5ZM518 792C522.3 788.1 524.7 777.3 524.7 762 524.7 747.1 522.5 748.9 544.9 745.6 560.4 743.3 582.1 736.5 596.2 729.4 632 711.4 657.7 680.6 669.8 641.1 673.8 628 674.3 624.2 674.3 601.5 674.3 573.5 672.5 564.1 663.1 543.8 653.3 522.4 638.4 504.8 618.6 491.4 602.8 480.7 579.8 471.6 536.4 459.1L524.7 455.7 524.7 387.7C524.7 332 525 319.8 526.8 319.8 530.5 319.8 547.8 329.1 554.5 334.6 562.9 341.6 572.3 356.4 576.6 369.7 584.4 393.7 591.8 402.2 608.8 406.5 631.9 412.4 653.9 399 659 375.9 662.9 358.5 652.4 330.2 633.3 306.5 610.7 278.3 583.8 263.7 542 256.7L525.5 253.9 524.7 235.9C523.9 218.3 523.7 217.7 518.8 212.8 508.5 202.4 491.3 206 486.5 219.4 485.3 222.5 484.4 231.8 484.3 240L484.2 255 479.2 255C470.6 255 442.5 261.3 428.7 266.4 388.9 280.9 360.8 310.5 349.4 349.8 346.2 361 345.7 366.3 345.7 389.4 345.8 419.4 347.6 428.8 357.1 448.5 373 481.4 401.9 502 458.8 520.7L484.2 529.1 484.2 605.2 484.2 681.2 479.7 680.2C468.9 677.7 453.9 668.7 444.5 659.1 432.7 647.1 428.4 639.3 418.6 612.1 409.3 586.3 406.6 581.6 397.2 576.1 391.4 572.8 387.1 571.7 377.1 571.1 365.8 570.4 363.4 570.8 355.5 574.7 345.9 579.4 337.6 588.4 334.2 598 327.8 615.9 336 650.7 352.3 675.3 377.1 712.8 417.9 737.7 469 746.8L484.2 749.5 484.2 761.7C484.2 780.7 487.9 790.8 496.3 794.4 501.3 796.6 514.6 795.1 518 792ZM524.7 612.9L524.7 541.2 529.9 542.3C532.8 542.8 542.7 547 552 551.5 573.3 561.9 585.7 573.4 591 587.8 594 596 594.5 600 594 613.7 593.5 627.8 592.7 631.3 588.2 640.8 581.1 656.2 568.9 667.9 551.8 676 544.5 679.5 535.3 682.9 531.5 683.5L524.7 684.5 524.7 612.9ZM463.9 434.9C434 420.2 424.7 405.5 426.2 375.7 427.4 353.5 434.5 341.7 453.8 330.5 459.7 327 481 318.2 483.4 318.2 483.8 318.2 484.2 346.2 484.2 380.5 484.2 429.5 483.7 442.8 482.1 442.8 481 442.8 472.8 439.3 463.9 434.9Z",
				"width": 1000
			},
			"search": [
				"dollar"
			]
		},
		{
			"uid": "a532d04d8b015b1a829ab2c26a231840",
			"css": "broken-glass",
			"code": 59398,
			"src": "custom_icons",
			"selected": true,
			"svg": {
				"path": "M405.7 698.1L408 891.1 279.5 892.6C251.3 892.9 228.7 916 229.1 944.2 229.4 972.3 252.5 994.9 280.7 994.6L739 989.2C767.2 988.9 789.7 965.8 789.4 937.6 789.1 909.5 766 886.9 737.8 887.2L609.3 888.7 607.1 695.9C825.3 664.2 938.6 533 936 312 934.7 203.2 912.1 113.7 860.5 12.8L855.1 2.3 749.8 3.3 752 22.5 754.2 41.7 765.4 138.8 693.4 322.9 722.8 434.9 629.4 322.9 688.1 138.8 647.4 42.8 639.4 23.6 631.3 4.5 137.2 9.6 132 20.3C83 121.7 62.7 211.7 64 321.2 66.5 542.8 184.3 671.6 405.7 698.1Z",
				"width": 1000
			},
			"search": [
				"broken-glass"
			]
		},
		{
			"uid": "8042927b463fca3ee896c392bb4aa2e2",
			"css": "shopping-cart",
			"code": 59399,
			"src": "custom_icons",
			"selected": true,
			"svg": {
				"path": "M350.4 945C315.2 940.6 288 909.3 287.9 873.1 287.8 832.8 321.1 800.3 362.4 800.3 390.2 800.3 414.4 814.3 427.9 838.2 434.2 849.4 434.8 852.2 434.8 873.2 434.8 891.2 433.9 897.8 430.4 904.1 413.7 934.7 385.1 949.3 350.4 945ZM799.9 945C776.4 941.5 753.5 924.2 743.3 902.1 736.5 887.4 736.5 859.2 743.2 844.6 753.3 822.9 771.4 808.3 795.8 802.2 812.7 797.9 826.3 799.3 843.6 806.9 888.6 826.8 900.7 885.5 867.2 921.3 849 940.8 826 948.9 799.9 945ZM274.4 748.8C262.4 745.2 251.5 736.9 245.3 726.5 239.6 717.1 234.6 690.2 192.1 440.6L145.2 165.1 103.3 164C62.7 162.9 61 162.6 50.4 156.6 20.4 139.3 16.4 100.1 42.3 77.9 56 66.1 61.7 65.4 136.4 66.2L204.5 66.9 214.6 73.9C229.6 84.2 234.2 94.4 240.5 131L245.9 162.9 599.4 164C923.1 165 953.5 165.5 959.9 168.9 975.3 177.3 986.8 194.9 986.8 210.3 986.8 221.4 936.1 566.2 933.5 573 930 582.1 919.4 593.2 909.6 598.1 900.8 602.5 893.8 602.6 612.4 602.6 446.3 602.6 323.7 603.4 322.9 604.6 322.2 605.7 323.4 617 325.5 629.7L329.4 652.8 586.3 652.8C745.8 652.8 846.3 653.7 851.4 655.1 887.9 665 898.5 715.2 869.1 738.9 864.4 742.7 856.5 747 851.6 748.4 841 751.5 284.8 751.8 274.4 748.8ZM437.8 456.9L438.4 408.4 363.7 408.4C305.4 408.4 288.9 409 288.9 411.3 288.9 414.9 302.9 500 304.2 503.8 304.9 506.1 319.5 506.6 371.1 506.1L437.1 505.5 437.8 456.9ZM636.7 457.5L636.7 408.4 562 408.4 487.3 408.4 487.3 457.5 487.3 506.6 562 506.6 636.7 506.6 636.7 457.5ZM844.4 503.8C844.4 502.2 847 483.4 850.2 462.1 853.4 440.7 856.5 419.9 857 415.8L858.1 408.4 773.1 408.4 688 408.4 688 457.5 688 506.6 766.2 506.6C827.2 506.6 844.4 506 844.4 503.8ZM364.2 358.2L438.3 358.2 438.3 310.2 438.3 262.2 350.7 262.2 263 262.2 264.3 269.6C276.1 338.7 279.6 359.2 279.6 360 279.6 360.5 281.9 360.4 284.8 359.6 287.7 358.8 323.4 358.2 364.2 358.2ZM636.7 310.2L636.7 262.2 562 262.2 487.3 262.2 487.3 310.2 487.3 358.2 562 358.2 636.7 358.2 636.7 310.2ZM866.3 351.9C867 348.4 869.7 330.2 872.3 311.3 874.9 292.5 877.6 273.7 878.4 269.6L879.6 262.2 783.8 262.2 688 262.2 688 310.2 688 358.2 776.5 358.2 865 358.2 866.3 351.9Z",
				"width": 1000
			},
			"search": [
				"shopping-cart"
			]
		},
		{
			"uid": "988da47c20c4ed68fd9b44ce8c8e97a0",
			"css": "dollar-no-sales",
			"code": 59400,
			"src": "custom_icons",
			"selected": true,
			"svg": {
				"path": "M452.1 985.5C421.4 982.4 384.4 974.2 351.4 963.5 226.9 922.8 125.4 834.9 66.7 716.9-54.5 473.5 47.5 178.5 293.5 60.5 475.8-27 694 8.4 840.7 149.2 882.2 189 913.5 231.7 939.6 284 996.8 399 1006.3 530.3 966.2 652.1 943 722.5 905.8 784.5 854.4 838 750.8 946 600.8 1001 452.1 985.5ZM351.4 756.4C351.4 729.2 351.5 728.6 356.6 728.6 359.5 728.6 369.1 727 378 725.1 444 711.3 487.7 651.2 482.4 581.8 479.7 547.8 468.1 523 444.3 501 427.9 485.9 408.4 476.1 376.9 467.3L352.5 460.5 351.9 382.6C351.2 294.1 349.6 300.1 371.2 310.2 391.3 319.5 404.3 337.7 411.6 366.6 413 372.1 414.8 376.5 415.7 376.4 420.9 376.3 469.7 367.8 470.6 366.9 471.2 366.4 470.1 359.2 468.2 351.2 460.5 318 435.6 284.8 408.4 271.5 395.5 265.2 364.2 256 355.6 256 352 256 351.4 254.1 351.4 243.3L351.4 230.5 335.2 230.5 318.9 230.5 318.9 243.1 318.9 255.6 303.3 258.3C267.8 264.5 246 275.5 226.2 297.1 204.6 320.7 196.1 344.1 196.2 379.8 196.2 392.6 197.3 407.7 198.6 413.3 208 454 238.9 482.2 296.9 502.9L317.8 510.4 318.4 596.1 319 681.8 311 680C288.3 674.9 265.8 656 255.1 633 252 626.4 247.7 612.8 245.6 602.9 241.2 582.5 242.9 583.4 215.8 588.5 185.1 594.2 186.9 593.3 186.9 603 187 625.9 199.8 658.9 216.9 680.4 237 705.6 262.3 719.2 302.2 726.4L318.9 729.4 318.9 756.8 318.9 784.2 335.2 784.2 351.4 784.2 351.4 756.4ZM352.7 680.5C352 679.8 351.4 643.3 351.4 599.4L351.4 519.5 357.8 520.8C370.7 523.4 391.1 532.3 400.7 539.4 406.9 544.1 412.9 551.7 417.3 560.6 423.5 573 424.2 576.6 424.1 595.3 424 611.1 422.7 619.5 418.8 629.5 409.7 653 387.7 672.6 362.5 679.5 357.8 680.8 353.4 681.2 352.7 680.5ZM294.5 442.9C265.5 428.9 251.8 408 251.8 377.7 251.8 343.3 272.8 316 306.8 306.1L318.9 302.6 318.9 376.6C318.9 461.9 321.2 455.7 294.5 442.9ZM732 720C769 706.3 797.6 673.6 813.7 626.4 833.3 568.8 835.9 456.2 819.3 390.3 805.8 337 779.7 299.6 744.1 282.7 723.7 273.1 708.7 269.9 683.1 270 625.2 270.1 586.8 295.8 560.8 352.2 532.2 414 528.9 552.7 554.2 628.5 570.6 677.8 602.3 710.8 644.9 722.9 662.7 728 715 726.2 732 720ZM657.7 676.1C643.2 671 623.8 652.2 615.6 635.2 600.9 604.9 596 571.5 595.9 500.4 595.8 393.6 611.1 345 651.4 323.6 661.3 318.4 665.8 317.5 682.7 317.5 699.5 317.5 704 318.4 713.9 323.6 727.8 331 745.2 348.5 751.9 361.8 768.1 394.2 775.8 467.1 770.8 539.8 765.4 620.1 750.7 654.9 714.7 672.9 702.6 678.9 697.9 679.9 684 679.8 675 679.7 663.1 678 657.7 676.1Z",
				"width": 1000
			},
			"search": [
				"dollar-no-sales"
			]
		},
		{
			"uid": "bfca29f08e26aac05ab6ca80e82e27e5",
			"css": "remove-circle",
			"code": 59405,
			"src": "custom_icons",
			"selected": true,
			"svg": {
				"path": "M500 0C225 0 0 225 0 500S225 1000 500 1000 1000 775 1000 500 775 0 500 0ZM750 680L680 750 500 570 320 750 250 680 430 500 250 320 320 250 500 430 680 250 750 320 570 500 750 680Z",
				"width": 1000
			},
			"search": [
				"remove-circle"
			]
		},
		{
			"uid": "700a71ce3cdac1debbbb0da1c027ce45",
			"css": "sun-rising",
			"code": 59396,
			"src": "custom_icons",
			"selected": true,
			"svg": {
				"path": "M187 854.1C167.9 850.2 153.1 838.6 144.3 820.9 139.6 811.3 139.4 810 139.4 795.6 139.4 781.3 139.7 779.8 144.2 770.7 150.5 757.7 160.7 747.5 172.9 741.7L182.7 737.1 494.3 736.8C780.3 736.4 806.5 736.6 813.2 738.8 848.4 750.3 865.4 788.7 849.7 821.5 841.2 839.5 824.8 851.4 804.2 854.6 788.7 857 198.9 856.5 187 854.1ZM160.3 614.5C160.3 608.2 178.2 570 190.6 549.5 237 473.2 312.5 415.7 399.1 390.8 454.1 375 514.3 373.1 572 385.2 637.5 399 697.9 431.2 747.4 478.7 773.3 503.6 800.9 541.3 817.2 574.1 824.3 588.3 834.2 611.7 834.2 614.4 834.2 616.4 827.1 616.6 770.3 616.6 735.2 616.6 705.8 616.1 704.9 615.5 704.1 615 700.3 609.8 696.5 604.1 660.2 549.6 605 513.2 539.1 500.3 518.8 496.3 472 496.7 451.8 501 387 514.9 334.4 549.9 298.8 602.9 294.5 609.3 290.3 615 289.5 615.5 288.7 616.1 259.3 616.6 224.2 616.6 168.8 616.6 160.3 616.4 160.3 614.5ZM146.2 455.7C141.3 454.6 134.1 452.1 130.2 450 125.6 447.4 106.8 429.7 74 396.8 28.3 351 24.5 346.8 20.3 337.5 6.9 307.9 19.1 273.8 48.3 259.7 59.7 254.2 71.6 252.3 83.1 254.3 102.9 257.8 104.5 259.1 158.4 312.8 203.9 358.1 208.2 362.8 212.5 372.1 217 381.6 217.3 383.1 217.3 398 217.3 413.2 217.1 414.3 212.4 423.6 207 434.4 196.2 445.7 186.4 450.6 180.3 453.8 163.7 457.9 158.1 457.8 156.6 457.7 151.2 456.8 146.2 455.7ZM822.6 455.9C805.3 452.1 790 439.8 781.8 423.3 777.8 415.3 777.1 412.2 776.7 400.7 776.1 385.2 778.4 376.3 786 364.8 788.6 360.9 812 336.5 838.1 310.6 889.8 259.2 892 257.6 911.8 254.2 919.9 252.8 923.2 252.9 932.5 255 971.5 263.7 990.7 305.2 972.6 341.4 968.2 350 873.7 444.8 864.3 449.9 857.3 453.7 841 458 834.2 457.7 832.2 457.7 827 456.8 822.6 455.9ZM477.8 314.1C461.8 308.4 448.4 295.5 441.4 279 438.1 271.1 438.1 270.5 437.6 202.9 437.4 160.3 437.8 131.7 438.7 126.7 442.7 105.2 459.2 87.1 480.5 80.7 513.9 70.9 549.1 92.7 555.7 127.3 557.5 137.1 557.6 256.5 555.8 267.7 552.7 286.3 540.1 303 522.9 311.2 514.2 315.3 511.6 315.8 498.7 316.1 488.4 316.3 482.4 315.7 477.8 314.1Z",
				"width": 1000
			},
			"search": [
				"sun-rising"
			]
		},
		{
			"uid": "b566b4bca85f4695ff33d5b3738ed3c9",
			"css": "megaphone",
			"code": 59395,
			"src": "custom_icons",
			"selected": true,
			"svg": {
				"path": "M1000 450.8V549.2C1000 590.8 966.2 624.6 924.6 624.6H895.5V836.9C895.5 854.2 883 869.8 865.8 872.1 864.2 872.3 862.5 872.4 860.9 872.4 845.9 872.4 832.6 863.1 828.3 848.3 825.8 842.6 796.5 783.5 659.7 703.1 555.7 642 447.3 627.5 391.5 624.3 381.9 648.8 358.1 666.3 330.3 666.3H321L340.4 780.5C342.8 794.7 338.8 809.2 329.5 820.2 320.2 831.2 306.6 837.6 292.2 837.6H233.7C209.7 837.6 189.5 820.4 185.5 796.8L163.4 666.3H129C92.8 666.3 63.4 636.8 63.4 600.6V599.7H55.2C24.8 599.7 0 574.9 0 544.4V455.6C0 425.1 24.8 400.3 55.2 400.3H63.4V399.4C63.4 363.2 92.8 333.7 129 333.7H330.3C358.1 333.7 381.9 351.2 391.4 375.7 447.3 372.5 555.7 358 659.7 296.9 796.5 216.6 825.8 157.4 828.3 151.7 833 135.3 848.8 125.7 865.8 127.9 883 130.2 895.5 145.8 895.5 163.1V375.4H924.6C966.2 375.4 1000 409.2 1000 450.8Z",
				"width": 1000
			},
			"search": [
				"megaphone"
			]
		},
		{
			"uid": "1021b33c6b39a6fc10294aa801b43193",
			"css": "send-button",
			"code": 59401,
			"src": "custom_icons",
			"selected": true,
			"svg": {
				"path": "M17.8 751.8C17.8 662.7 18.4 589.8 19.1 589.7 28.9 589.3 706.7 497.5 705 496.8 703.6 496.3 548.7 475.5 360.8 450.5 172.9 425.5 18.9 404.8 18.5 404.4 18.1 404 18 331.2 18.2 242.6L18.6 81.5 503 289C769.4 403.1 987.3 496.8 987.4 497.3 987.4 497.7 769.8 591.3 503.8 705.3 237.9 819.2 19.7 912.7 19.1 913.1 18.4 913.4 17.8 840.8 17.8 751.8Z",
				"width": 1000
			},
			"search": [
				"send-button"
			]
		},
		{
			"uid": "8489d61496923b1159b01d8a0a7b2df0",
			"css": "volume-off",
			"code": 59397,
			"src": "elusive"
		},
		{
			"uid": "b43a4ccba04edae0ac6f8890961dd0a0",
			"css": "check-double",
			"code": 59402,
			"src": "custom_icons",
			"selected": true,
			"svg": {
				"path": "M112.2 660.6L8.4 556.8 44.9 520.3 81.4 483.8 148.2 550.5 214.9 617.3 426.1 406 637.4 194.7 674.8 232.1 712.2 269.5 464.8 517C328.6 653.1 217 764.5 216.7 764.5 216.3 764.5 169.3 717.8 112.2 660.6ZM435 702L375.8 643.1 412 606.8 448.3 570.6 470.5 592.8 492.8 615 703.5 403.6C887.8 218.7 914.6 192.3 916.5 193.4 917.7 194.1 934.6 210.6 954 230L989.3 265.3 924.1 330.9C888.2 366.9 797.6 457.8 722.8 532.9 648.1 607.9 566.5 689.9 541.7 715.1 516.8 740.3 495.9 760.9 495.3 760.9 494.7 760.9 467.5 734.4 435 702Z",
				"width": 1000
			},
			"search": [
				"check-double"
			]
		},
		{
			"uid": "fc2326f7a229f01b6b6611800e03e372",
			"css": "check-single",
			"code": 59403,
			"src": "custom_icons",
			"selected": true,
			"svg": {
				"path": "M231.8 663.6L125.6 557.4 163 520 200.3 482.7 268.6 550.9 336.8 619.2 552.9 403.1 769 187 807.2 225.3 845.5 263.5 592.4 516.7C453.2 655.9 339 769.8 338.7 769.8 338.3 769.8 290.2 722 231.8 663.6Z",
				"width": 1000
			},
			"search": [
				"check-single"
			]
		},
		{
			"uid": "d7a97500cb43c7f53d8f64514eb8433d",
			"css": "edit",
			"code": 59404,
			"src": "custom_icons",
			"selected": true,
			"svg": {
				"path": "M971.5 387.3L915.8 443.1 760.4 287.8 816.2 232C833.8 214.4 860.2 212.3 875.1 227.2L976.4 328.5C991.2 343.4 989.1 369.8 971.5 387.3ZM734.5 313.6L889.9 469 519.4 839.4C517.7 841.1 513 845.8 506.4 847.5 505.6 847.9 504.9 848.2 504.1 848.4L310.8 910.1C305.4 911.8 299.9 910.7 296.4 907.1 292.9 903.6 291.8 898.2 293.4 892.7L355.1 699.4C355.3 698.6 355.6 697.9 356 697.1 357.7 690.5 362.4 685.8 364.1 684.1L433.7 614.5H198.6C189.1 614.5 181.4 606.8 181.4 597.3 181.4 587.8 189.1 580.1 198.6 580.1H468.1L734.5 313.6ZM471.7 827.5L376 731.9 350.4 812.4 391.1 853.1 471.7 827.5ZM728.6 375.4C723.1 369.9 714.1 369.9 708.6 375.4L419.9 664.1C414.4 669.6 414.4 678.6 419.9 684.1 425.4 689.6 434.3 689.6 439.8 684.1L728.6 395.3C734.1 389.8 734.1 380.9 728.6 375.4ZM711.1 925.1C711.1 935.4 702.7 943.9 692.4 943.9H351.7L320.9 953.7C314.7 955.6 308.3 956.6 302 956.6 288.4 956.6 275.8 952 265.5 943.9H88.7C78.3 943.9 69.9 935.5 69.9 925.1V138.8C69.9 128.5 78.3 120.1 88.7 120.1H158.9V149.8C158.9 160.1 167.2 168.5 177.6 168.5 187.9 168.5 196.3 160.1 196.3 149.8V120.1H303.9V149.8C303.9 160.1 312.3 168.5 322.7 168.5 333 168.5 341.4 160.1 341.4 149.8V120.1H435V149.8C435 160.1 443.4 168.5 453.7 168.5 464.1 168.5 472.4 160.1 472.4 149.8V120.1H575.4V149.8C575.4 160.1 583.8 168.5 594.1 168.5 604.5 168.5 612.9 160.1 612.9 149.8V120.1H692.4C702.7 120.1 711.1 128.5 711.1 138.8V268.5L730.8 248.9 767.3 212.4V138.8C767.3 97.6 733.7 64 692.4 64H612.9V18.7C612.9 8.4 604.5 0 594.1 0 583.8 0 575.4 8.4 575.4 18.7V64H472.4V18.7C472.4 8.4 464 0 453.7 0 443.4 0 435 8.4 435 18.7V64H341.4V18.7C341.4 8.4 333 0 322.6 0 312.3 0 303.9 8.4 303.9 18.7V64H196.3V18.7C196.3 8.4 187.9 0 177.6 0 167.2 0 158.8 8.4 158.8 18.7V64H88.6C47.4 64 13.7 97.6 13.7 138.8V925.1C13.7 966.4 47.4 1000 88.6 1000H692.4C733.7 1000 767.3 966.4 767.3 925.1V652.5L711.1 708.7V925.1H711.1ZM564.9 288.3H198.6C189.1 288.3 181.4 295.9 181.4 305.4 181.4 314.9 189.1 322.6 198.6 322.6H564.9C574.3 322.6 582 314.9 582 305.4 582 295.9 574.3 288.3 564.9 288.3ZM564.9 426.7H198.6C189.1 426.7 181.4 434.4 181.4 443.9 181.4 453.3 189.1 461 198.6 461H564.9C574.3 461 582 453.3 582 443.9 582 434.4 574.3 426.7 564.9 426.7Z",
				"width": 1000
			},
			"search": [
				"edit"
			]
		},
		{
			"uid": "861c3080de055311736678dd71c2397d",
			"css": "clock",
			"code": 59407,
			"src": "custom_icons",
			"selected": true,
			"svg": {
				"path": "M464.7 986.9C463 986.6 454.4 985.6 445.7 984.7 379.4 977.5 305.5 951.2 248.7 914.7 152.1 852.6 80.3 758.5 46.6 650.1 12.6 540.2 18.2 421.9 62.6 316.4 94.2 241.4 143.3 176.3 207.7 124.5 223.5 111.8 250.9 93.3 267.7 84 273.2 81 280.9 76.7 284.9 74.5 301.4 65.4 336.2 51.3 365.8 41.8 377.2 38.2 402.1 32.3 418.1 29.5 559.1 4.6 700.8 44.3 809.9 139.1 872.7 193.6 924.2 270.6 949.9 348.2 955.5 365.1 961.1 384.1 962.6 391.5 972.3 438.7 975.3 464.6 975.4 503.3 975.8 653.6 909.3 792.6 792.2 885.9 727.7 937.3 651 970.4 566.6 983.3 551.8 985.6 536.8 986.5 507.3 986.9 485.5 987.2 466.3 987.2 464.7 986.9ZM556.7 952.1C622.4 942.5 673.9 924.2 729.2 890.7 815.9 838.1 884.2 753.3 918.6 655.4 943.5 584.4 950.3 503.8 937.5 428.8 924 349.2 889.9 275.2 838.8 214.3 823.4 196 793.1 166 776.4 152.5 690.8 83.4 581.9 48.4 474.5 55.5 408.5 59.8 349.7 76.3 295.1 105.8 268.8 120 260.6 125.2 238.1 141.9 111.8 235.8 43.2 391 58.6 548.2 64.4 607.8 79.4 659.3 106.8 713.1 173.9 845.2 307.1 937.7 451.7 952.7 461.4 953.7 470.3 954.8 471.5 955.1 477.2 956.4 542.4 954.1 556.7 952.1ZM492.6 871.3C490.4 870.1 487.5 866.8 486.2 863.9 482.9 857.1 482.9 841.5 486.2 834.6 491.7 823 506.7 821.8 513.1 832.5 514.9 835.7 515.6 840.4 515.6 850.1 515.6 863.1 515.5 863.4 510.5 868.5 504.8 874.1 499.4 875 492.6 871.3ZM242.8 764.6C234.6 756.5 235.6 749.7 246.4 737.8 255.2 728.2 260.9 725.3 268.4 726.7 275.7 728.1 279.9 733.9 279.9 742.5 279.9 749 279.3 750.1 270.3 759.1 261.3 768 260.2 768.7 253.7 768.7 248.3 768.7 246 767.8 242.8 764.6ZM730.1 758.9C721 749.7 720.4 748.7 720.4 742.1 720.4 732.3 725.8 726.9 735.5 726.9 742 726.9 742.9 727.4 752.2 737 761.3 746.3 762 747.6 762 753.8 762 763.2 756.3 768.7 746.7 768.7 740.3 768.7 739.2 768 730.1 758.9ZM485.6 565.6C466.6 560.5 452.3 548.6 443.5 530.7L438 519.4 378.6 518.9 319.2 518.5 314.7 513.5C307.4 505.3 309.4 493.9 319 489 321.2 487.9 340.5 487.3 380.1 487.3L437.8 487.3 443.2 476.1C449.7 462.6 462.3 450.2 475.1 444.7L483.6 440.9 483.7 358.3C483.7 272.6 483.7 272.9 490.2 265.7 495 260.4 505.4 260.9 511.2 266.7L515.6 271.1 515.6 355.6 515.6 440.2 525.5 444.6C566.4 463.2 576.1 516.5 544.5 548.4 528 565 506.7 571.3 485.6 565.6ZM513.6 532C520.7 529 528.9 518.6 530.7 510.3 533.4 497.4 528.6 484.3 518.4 477.3 503.4 466.9 484.1 470.5 473.9 485.8 467.8 494.9 467.4 509.1 472.9 518.9 481.2 533.3 497.6 538.6 513.6 532ZM145.3 517.8C139.4 515.4 136.2 510.2 136.2 503 136.2 497.2 136.9 495.5 141.1 491.8 145.8 487.6 146.8 487.3 159.6 487.3 172.4 487.3 173.4 487.6 177.8 491.7 186.2 499.6 183.5 513.6 172.7 517.7 167.9 519.5 149.7 519.6 145.3 517.8ZM825.9 517.3C820.9 514.8 816.1 505.2 817.4 500 818 497.8 820.4 494.1 822.8 491.7 826.9 487.5 827.8 487.3 840.8 487.3 856.3 487.3 860.9 489.6 863.9 498.8 865.4 503.2 865.2 505 862.9 509.8 859.2 517.3 854.7 519.2 841.1 519.2 834.8 519.2 828 518.4 825.9 517.3ZM257 277.8C250 273 238.9 259.7 237.9 255.1 236 245.2 246.2 235.2 256.3 237.1 259.7 237.7 264.1 241 270.6 247.7 278.4 255.9 279.9 258.3 279.9 262.8 279.9 270.1 277.5 274.9 272.3 278 266.8 281.2 261.9 281.2 257 277.8ZM727.6 277.6C722.1 274.3 718.8 266.1 720.3 260.1 721.6 254.8 737.6 238.4 742.7 237.1 753 234.5 762 241.8 762 252.8 762 259 761.3 260.3 752.5 269.3 741.4 280.7 735.5 282.7 727.6 277.6ZM496.3 180.5C491.4 179.6 485.4 172.9 484.3 167 482.6 158 484.4 144 487.7 139.4 493.6 131.5 505.1 131.1 512 138.6 515.3 142.2 515.6 143.8 515.6 156.8 515.6 170.2 515.4 171.2 511.4 175.4 507.2 179.9 502.2 181.6 496.3 180.5Z",
				"width": 1000
			},
			"search": [
				"clock"
			]
		},
		{
			"uid": "927376847261faa9402e161474b113a4",
			"css": "minus",
			"code": 59406,
			"src": "custom_icons",
			"selected": true,
			"svg": {
				"path": "M481.1 985.3C432.8 982.6 407.8 978.5 360 965.5 338 959.6 299.5 943.9 274 930.6 144.7 863 49.5 736.5 22.2 596.1 14.3 555 13.6 547.4 13.6 499.3 13.6 452.1 14.4 443.1 21.5 406.3 50.3 256.7 150.7 127.1 289.2 60.9 300.5 55.5 312.2 50.2 315.1 49.1 351.6 35.5 362.9 32 392.4 25.3 432.2 16.2 447.1 14.7 497.6 14.6 538.2 14.5 546.3 14.9 565.2 17.7 577 19.5 589.3 21.6 592.6 22.3 595.8 23 603.3 24.7 609.3 26 634.5 31.6 673.8 45 699.3 56.7 832.8 118.1 932 235.6 968.6 375.7 1012.6 543.7 964.7 720.2 842 842.9 767.6 917.4 674.3 964.4 569.7 980.3 551.7 983.1 505.5 986.5 494.3 986 491.4 985.8 485.4 985.5 481.1 985.3ZM544.4 925C663.7 911.3 768.8 851.6 840.2 756.8 887.7 693.8 915.2 624.2 924.2 543.9 927.1 518.4 926.4 466.9 922.8 441.6 911.5 362.3 880 290.5 829 227.7 815.3 210.8 783.7 179.6 766.3 165.7 710.7 121.2 646 91.7 576.1 78.7 546.9 73.3 532.5 72.1 499.1 72.1 447.8 72.1 411.8 77.7 365.8 92.9 299.5 114.8 246 147.7 196.4 197.3 126.7 266.8 85.6 351.8 73 451.7 70.6 471.4 70.6 527.2 73.1 546.8 82.6 622.1 106.6 685.4 148.4 745.2 174.8 783 215.7 823.7 254.8 851.1 308.4 888.7 377.9 915.6 441.5 923.5 451 924.7 460.7 925.9 463 926.2 475.4 927.8 526.8 927 544.4 925ZM250.6 525.7C245.2 523 241.8 520 238.7 515.3 234.9 509.3 234.5 507.6 235 499.1 235.6 487.1 240.5 479.3 250.3 474.5L257 471.2 491.9 470.8C648.6 470.5 729 470.9 733.7 471.9 743 473.8 750.2 479.7 754.3 488.4 758.3 497 758.5 501.4 755.3 509.7 752.1 518.1 746 524.2 737.9 527.1 731.5 529.3 713.5 529.5 494.7 529.5L258.3 529.5 250.6 525.7Z",
				"width": 1000
			},
			"search": [
				"minus"
			]
		},
		{
			"uid": "61e6713a3582dfb2daeec6780e1c1510",
			"css": "logo",
			"code": 59422,
			"src": "custom_icons",
			"selected": true,
			"svg": {
				"path": "M324.2 498.1C489.3 333.2 627.7 198.1 631.7 198 637.3 197.8 639 223.3 639 307L639 416.4 448 607.3 257.1 798.2 140.5 798.1 23.9 798 324.2 498.1ZM677 493.6C848.6 321 981.9 191.5 984.3 194.8 986.7 198 988.7 249.1 988.7 308.4L988.8 416.1 796.1 607.2 603.4 798.2 488.6 798.2 373.8 798.2 677 493.6ZM848.6 667.3C920.5 595.4 981.4 537.8 984.1 539.4 986.7 541 988.8 599.9 988.8 670.3L988.8 798.2 853.3 798.2 717.8 798.2 848.6 667.3Z",
				"width": 1000
			},
			"search": [
				"logo"
			]
		},
		{
			"uid": "fe8e55343454f2d09a181abfb4f15ee5",
			"css": "paper-plane",
			"code": 59424,
			"src": "custom_icons",
			"selected": true,
			"svg": {
				"path": "M999.4 180.9C999.4 180.9 999.4 180.8 999.4 180.8 999 178.7 998.3 176.8 997.2 175.1 997.2 175.1 997.2 175.1 997.2 175 997.2 175 997.2 175 997.1 175 996.1 173.3 994.8 171.9 993.3 170.7 993 170.5 992.6 170.3 992.3 170.1 991 169.3 989.8 168.6 988.3 168.1 987.4 167.8 986.5 167.7 985.5 167.6 984.8 167.5 984.1 167.1 983.4 167.1H983.3C982.7 167.1 982.2 167.2 981.7 167.2 981.6 167.3 981.5 167.2 981.3 167.3 981.2 167.3 981 167.3 980.8 167.3 980.4 167.4 979.9 167.4 979.5 167.5L13.3 367.2C6.4 368.6 1.1 374.2 0.2 381.2S2.7 394.9 8.9 398.2L285.7 544.2 334.2 813.6C334.2 813.8 334.3 814.1 334.2 814.3 334.1 815.6 334.1 816.9 334.2 818.2 334.3 818.9 334.4 819.5 334.6 820.1 334.9 821.7 335.6 823.2 336.4 824.6 336.6 824.9 336.6 825.2 336.7 825.5 336.8 825.5 336.9 825.6 336.9 825.7 337.2 826 337.4 826.2 337.7 826.6 338.5 827.5 339.3 828.4 340.2 829.2 340.4 829.3 340.5 829.5 340.6 829.6 340.9 829.8 341.2 829.8 341.4 830 342.4 830.6 343.5 831.2 344.6 831.6 345.1 831.8 345.5 832 345.9 832.1 347.4 832.5 349 832.8 350.5 832.8 350.6 832.8 350.6 832.8 350.6 832.8H350.6C350.6 832.8 350.6 832.8 350.6 832.8 350.7 832.8 350.7 832.8 350.8 832.8 351.1 832.8 351.4 832.8 351.6 832.8 356.3 832.8 360.4 830.8 363.5 827.6L547.9 704.7 741 830.2C743.7 831.9 746.9 832.8 750 832.8 751.8 832.8 753.6 832.6 755.3 832 760.1 830.4 763.9 826.7 765.6 821.9L997.6 192.4C999.1 189.9 1000 186.9 1000 183.7 1000 182.8 999.6 181.9 999.4 180.9ZM806.6 292.8L407.3 586.5C406.6 586.9 406.1 587.5 405.6 588.1 405.3 588.3 405.1 588.5 404.9 588.7 404.6 589.1 404.3 589.5 404 589.9 403.7 590.3 403.4 590.7 403.2 591.1 402.5 592.1 402 593.1 401.6 594.2 401.5 594.4 401.4 594.6 401.3 594.8 401.3 594.9 401.3 594.9 401.2 595L355.5 743.7 319.2 542.5 806.6 292.8ZM381.3 775.8L426.6 625.9 497.3 671.8 517.5 685 448.8 730.7 381.3 775.8Z",
				"width": 1000
			},
			"search": [
				"paper-plane"
			]
		},
		{
			"uid": "677961da9fee54bba5b7db05c2677613",
			"css": "no-mobile",
			"code": 59427,
			"src": "custom_icons",
			"selected": true,
			"svg": {
				"path": "M270.3 952.1C259.6 950 253.2 946.3 245.6 937.9 236.9 928.2 235.2 921 235.2 894L235.2 871.3 261.9 846.8C276.6 833.3 297.4 814.3 308.1 804.5L327.5 786.8 516.2 786.4 704.8 785.9 705.7 612.1 706.6 438.4 744.8 403.4 782.9 368.4 783.4 644.4 783.9 920.4 778.8 930.3C772.8 942.3 762.8 949.6 749.2 952.2 737.6 954.4 281.4 954.3 270.3 952.1ZM522.5 908.3C531.6 905.5 543.1 895.6 548 886.1 554 874.5 553.5 857.4 546.9 846.8 540.8 837.1 536.6 833.2 526.7 828.5 517.4 824.1 501.9 824 492.2 828.4 474.8 836.3 463.5 858.3 467.7 875.9 473.8 901.3 498 915.6 522.5 908.3ZM116.1 852.4C107 850.1 99.8 845.6 92.8 837.7 85.6 829.8 83.5 825.5 80.7 813.2 78.8 804.6 82 788.4 87.3 780.4 89.6 776.8 123.8 744.7 176.9 696.2 179.4 693.9 193.6 680.9 208.3 667.4L235.1 642.8 235.6 357.3 236.1 71.9 241.5 63.8C244.5 59.3 250.5 53.2 254.9 50.2L262.7 44.6 509.5 44.6 756.3 44.6 764.1 50.1C768.4 53.2 774.4 59.2 777.4 63.5L782.9 71.3 783.5 101.6C783.7 118.2 784.4 133 784.8 134.3 785.7 136.9 785.8 136.9 822 103.6 863.5 65.4 867.2 62.5 877.7 59.2 908.3 49.5 938.8 72.2 938.7 104.5 938.6 126.7 938.5 126.8 857.4 200.9 846.5 210.9 826.5 229.3 812.9 241.8 799.3 254.3 769.9 281.2 747.6 301.7 725.2 322.2 706.1 339.8 705 340.8 697.5 347.7 612 426.3 603.1 434.4 597.1 439.9 576.2 459.1 556.7 477.1 537.1 495 502.4 527 479.4 548 456.5 569.1 416.1 606.2 389.6 630.5 363.1 654.8 332.9 682.6 322.4 692.2 312 701.8 292.3 719.8 278.8 732.3 246 762.5 172.7 829.6 162.5 838.9 158 843 151.8 847.6 148.7 849.1 142 852.5 123.7 854.4 116.1 852.4ZM324 561.1C328.6 556.8 341.4 545.1 352.4 535 363.3 525 383.8 506.2 397.8 493.3 411.8 480.3 431.9 461.9 442.3 452.3 477.6 419.9 557.4 346.7 591.4 315.5 609.9 298.4 643.2 267.8 665.4 247.4L705.7 210.4 705.7 166.1 705.7 121.8 509.9 122.3 314.2 122.8 313.7 345.8C313.5 468.4 313.8 568.8 314.4 568.8 315.1 568.8 319.4 565.3 324 561.1Z",
				"width": 1000
			},
			"search": [
				"no-mobile"
			]
		},
		{
			"uid": "d70c44903684cbdb162d743dfcd48c37",
			"css": "email",
			"code": 59410,
			"src": "custom_icons",
			"selected": true,
			"svg": {
				"path": "M999.2 385.9C999.2 384.4 998.9 382.2 998.3 380.9 996.8 375.3 993.4 370.2 988.2 366.6L845.1 267.1V160.5C845.1 146.3 833.6 134.8 819.5 134.8H654.8L514.7 37.4C505.9 31.3 494.3 31.3 485.5 37.4L344.5 134.8H180.5C166.4 134.8 154.9 146.3 154.9 160.5V265.9L11.1 365.3C4 370.2 0.2 378 0 386 0 386.1 0 386.3 0 386.4L0.8 941.6C0.8 948.4 3.5 954.9 8.3 959.7 13.1 964.5 19.6 967.2 26.4 967.2 26.4 967.2 26.4 967.2 26.4 967.2L974.4 965.9C988.6 965.8 1000 954.4 1000 940.2L999.2 385.9ZM845.1 329.5L926.9 386.4 845.1 443.3V329.5ZM500 89.6L565.1 134.8H434.6L500 89.6ZM206.1 186.1H793.9V478.9L596.5 616.1 516.1 553.7C516 553.6 515.9 553.5 515.7 553.4 506.7 546.7 494 546.4 484.7 553.7L403.6 616.5 206.1 480V186.1ZM154.9 328.1V444.6L70.6 386.4 154.9 328.1ZM51.3 435.3L361.2 649.5 51.9 889.3 51.3 435.3ZM101.3 915.8L500.4 606.3 898 914.7 101.3 915.8ZM639 649L948.1 434.1 948.7 889.2 639 649ZM673.4 288.5H326.6C312.5 288.5 301 300 301 314.1S312.5 339.7 326.6 339.7H673.4C687.5 339.7 699 328.3 699 314.1S687.5 288.5 673.4 288.5ZM673.4 421.7H326.6C312.5 421.7 301 433.1 301 447.3 301 461.4 312.5 472.9 326.6 472.9H673.4C687.5 472.9 699 461.4 699 447.3 699 433.1 687.5 421.7 673.4 421.7Z",
				"width": 1000
			},
			"search": [
				"email"
			]
		},
		{
			"uid": "6baabbb548b81cd3a032be7cc3d2d056",
			"css": "thumbs-down",
			"code": 59411,
			"src": "custom_icons",
			"selected": true,
			"svg": {
				"path": "M911.4 672.8C872.3 683 780.5 682.9 646.1 686.4 652.5 715.8 653.9 742.2 653.9 789.1 653.9 901.3 572.3 1000 500 1000 449 1000 406.9 958.3 406.3 907 405.6 844 386.1 735.3 281.3 680.2 273.6 676.2 251.6 665.3 248.3 663.9L250 662.5C233.6 676.7 210.8 687.5 187.5 687.5L93.8 687.5C42.1 687.5 0 645.4 0 593.8L0 93.8C0 42.1 42.1 0 93.8 0L187.5 0C224.7 0 255.8 22.5 270.9 54 271.3 53.8 271.9 53.7 272.3 53.6 274.4 53 276.8 52.4 279.8 51.7 280.4 51.5 280.7 51.4 281.3 51.3 299.3 46.8 333.9 38.5 408 21.5 423.8 17.9 507.7 0 594.6 0L765.4 0C817.5 0 855 20 877.4 60.3 877.7 60.9 884.9 74.9 890.8 93.9 895.2 108.2 896.8 128.4 891.5 148.9 925 171.9 935.8 206.8 942.9 229.5 954.7 266.7 951.1 294.7 942.9 314.7 961.8 332.5 977.9 359.7 984.7 401.2 988.9 426.8 984.4 453.3 972.5 475.3 990.2 495.2 998.3 520.2 999.2 543.3L999.6 549.8C999.8 553.9 1000 556.4 1000 565.4 1000 604.9 972.7 655.3 911.4 672.8ZM218.8 93.8C218.8 76.5 204.8 62.5 187.5 62.5L93.8 62.5C76.5 62.5 62.5 76.5 62.5 93.8L62.5 593.8C62.5 611 76.5 625 93.8 625L187.5 625C204.8 625 218.8 611 218.8 593.8L218.8 93.8ZM936.8 545.8C936.2 530.3 929.7 500 875 500 828.1 500 812.5 500 812.5 500 803.8 500 796.9 493 796.9 484.4 796.9 475.8 803.8 468.8 812.5 468.8 812.5 468.8 826.2 468.8 873.1 468.8 919.9 468.8 926.1 429.9 923.1 411.1 919.2 387.8 908.3 343.8 855.5 343.8 802.8 343.8 781.3 343.8 781.3 343.8 772.6 343.8 765.6 336.8 765.6 328.1 765.6 319.5 772.6 312.5 781.3 312.5 781.3 312.5 818.4 312.5 842.8 312.5 895.5 312.5 890.9 272.3 883.3 248.3 873.3 216.8 867.3 187.5 800.8 187.5 778.3 187.5 749.8 187.5 749.8 187.5 741.2 187.5 734.2 180.5 734.2 171.9 734.2 163.3 741.2 156.3 749.8 156.3 749.8 156.3 771.5 156.3 798.8 156.3 833 156.3 834.6 123.9 831 112.3 827.1 99.6 822.5 90.2 822.3 89.8 812.9 72.7 797.7 62.5 765.4 62.5L594.6 62.5C508.8 62.5 423.7 82 421.5 82.5 291.7 112.4 284.8 114.7 276.7 117 276.7 117 250.2 121.5 250.2 144.5L250 576.2C250 590.8 259.3 604.1 274.8 608.7 276.8 609.5 279.4 610.3 281.3 611.1 424 670.2 467.5 799.8 468.8 906.3 468.9 921.2 480.5 937.5 500 937.5 533 937.5 591.4 871.2 591.4 789.1 591.4 715 588.4 702.2 562.5 625 875 625 872.8 620.5 900.4 613.3 934.6 603.5 937.5 575.2 937.5 565.4 937.5 554.7 937.2 556.3 936.8 545.8ZM140.6 187.5C114.8 187.5 93.8 166.5 93.8 140.6 93.8 114.8 114.8 93.8 140.6 93.8 166.5 93.8 187.5 114.8 187.5 140.6 187.5 166.5 166.5 187.5 140.6 187.5ZM140.6 125C132 125 125 132 125 140.6 125 149.2 132 156.3 140.6 156.3 149.2 156.3 156.3 149.2 156.3 140.6 156.3 132 149.2 125 140.6 125Z",
				"width": 1000
			},
			"search": [
				"thumbs-down"
			]
		},
		{
			"uid": "ee03c47c3729970da14f386449a7b388",
			"css": "thumbs-up",
			"code": 59412,
			"src": "custom_icons",
			"selected": true,
			"svg": {
				"path": "M911.4 327.3C872.3 317 780.5 317.1 646.1 313.6 652.5 284.2 653.9 257.8 653.9 210.9 653.9 98.8 572.3 0 500 0 449 0 406.9 41.7 406.3 93 405.6 156 386.1 264.7 281.3 319.8 273.6 323.8 251.6 334.7 248.3 336.1L250 337.5C233.6 323.3 210.8 312.5 187.5 312.5H93.8C42.1 312.5 0 354.6 0 406.3V906.3C0 957.9 42.1 1000 93.8 1000H187.5C224.7 1000 255.8 977.5 270.9 946 271.3 946.2 271.9 946.3 272.3 946.4 274.4 947 276.8 947.6 279.8 948.3 280.4 948.5 280.7 948.6 281.3 948.7 299.3 953.2 333.9 961.5 408 978.5 423.8 982.1 507.7 1000 594.6 1000H765.4C817.5 1000 855 980 877.4 939.8 877.7 939.1 884.9 925.1 890.8 906.1 895.2 891.8 896.8 871.6 891.5 851.1 925 828.1 935.8 793.2 942.9 770.5 954.7 733.3 951.1 705.3 942.9 685.3 961.8 667.5 977.9 640.3 984.7 598.8 988.9 573.2 984.4 546.7 972.5 524.7 990.2 504.8 998.3 479.8 999.2 456.7L999.6 450.2C999.8 446.1 1000 443.6 1000 434.6 1000 395.1 972.7 344.8 911.4 327.3ZM218.8 906.3C218.8 923.5 204.8 937.5 187.5 937.5H93.8C76.5 937.5 62.5 923.5 62.5 906.3V406.3C62.5 389 76.5 375 93.8 375H187.5C204.8 375 218.8 389 218.8 406.3V906.3ZM936.8 454.2C936.2 469.7 929.7 500 875 500 828.1 500 812.5 500 812.5 500 803.8 500 796.9 507 796.9 515.6S803.8 531.3 812.5 531.3C812.5 531.3 826.2 531.3 873.1 531.3S926.1 570.1 923.1 588.9C919.2 612.2 908.3 656.3 855.5 656.3 802.8 656.3 781.3 656.3 781.3 656.3 772.6 656.3 765.6 663.2 765.6 671.9 765.6 680.5 772.6 687.5 781.3 687.5 781.3 687.5 818.4 687.5 842.8 687.5 895.5 687.5 890.9 727.7 883.3 751.7 873.3 783.3 867.3 812.5 800.8 812.5 778.3 812.5 749.8 812.5 749.8 812.5 741.2 812.5 734.2 819.5 734.2 828.1 734.2 836.7 741.2 843.8 749.8 843.8 749.8 843.8 771.5 843.8 798.8 843.8 833 843.8 834.6 876.1 831 887.7 827.1 900.4 822.5 909.8 822.3 910.2 812.9 927.3 797.7 937.5 765.4 937.5H594.6C508.8 937.5 423.7 918 421.5 917.5 291.7 887.6 284.8 885.3 276.7 883 276.7 883 250.2 878.5 250.2 855.5L250 423.8C250 409.2 259.3 395.9 274.8 391.3 276.8 390.5 279.4 389.7 281.3 388.9 424 329.8 467.5 200.2 468.8 93.8 468.9 78.8 480.5 62.5 500 62.5 533 62.5 591.4 128.8 591.4 210.9 591.4 285 588.4 297.8 562.5 375 875 375 872.8 379.5 900.4 386.7 934.6 396.5 937.5 424.8 937.5 434.6 937.5 445.3 937.2 443.7 936.8 454.2ZM140.6 812.5C114.8 812.5 93.8 833.5 93.8 859.4S114.8 906.3 140.6 906.3 187.5 885.3 187.5 859.4 166.5 812.5 140.6 812.5ZM140.6 875C132 875 125 868 125 859.4S132 843.8 140.6 843.8 156.3 850.8 156.3 859.4 149.2 875 140.6 875Z",
				"width": 1000
			},
			"search": [
				"thumbs-up"
			]
		},
		{
			"uid": "dee4b34b52320cf4a8b67f191597e977",
			"css": "small-calendar",
			"code": 59392,
			"src": "custom_icons",
			"selected": true,
			"svg": {
				"path": "M101.5 964.6C71 959.5 47.1 937.2 38.9 906.3 36.5 897.2 36.4 881.7 36.4 544.7 36.4 209.1 36.5 192 38.9 182.1 44.9 156.8 63.8 135.9 88.8 126.9 97.4 123.8 98.8 123.7 168.4 123.1L239.2 122.4 239.9 89.4C240.6 57.6 240.7 56.1 243.9 50.5 253.5 33.9 274.8 30.7 289.2 43.8 296.5 50.5 296.9 52.6 297.7 88.7L298.4 122.4 385 122.4 471.6 122.4 472.3 89.4C473 57.4 473.1 56.2 476.4 50.5 480.5 43.2 489.8 36.9 498 35.6 509.5 33.9 522.6 41.4 527.9 52.9 530.4 58.4 530.8 62.6 531.4 90.7L532.2 122.4 618.1 122.4 704.1 122.4 704.7 89.4C705.5 53.2 705.7 52.2 714.5 43.6 719 39.2 728.8 35 734.5 35 739.7 35 749.1 39.3 753.9 43.7 762.1 51.4 762.5 53.5 762.5 88.3 762.5 110.9 763 120.2 764.2 121.4 765.4 122.6 782.4 123.1 832.2 123.1 875 123.1 901.1 123.6 905.8 124.6 933.6 130.3 958.2 154.8 965 183.6 966.4 189.6 966.7 261.2 966.7 544.6 966.7 879.8 966.6 898.5 964.3 906.9 957.7 930.8 941.5 949.9 919.9 959.2 903.3 966.4 922.5 966.1 500.7 965.9 285.1 965.8 105.4 965.2 101.5 964.6ZM899.4 904.3C901.8 902.9 904.7 899.6 906 896.9 908.1 892.4 908.3 867.1 907.9 542L907.6 192 903.6 187.9C901.5 185.6 898.1 183.1 896.1 182.3 893.6 181.3 872 180.9 827.8 181.1L763.2 181.5 762.5 215.2C761.9 246 761.6 249.3 759 253.7 749.8 269.4 725.9 272.1 713.5 258.8 705.6 250.4 704.7 245.9 704.7 211.7L704.7 180.8 618.2 180.8 531.7 180.8 531.2 212.8C530.8 244 530.7 245 527.3 251.7 525.1 255.8 521.4 260.1 517.9 262.6 512.5 266.4 510.9 266.8 501.3 266.8 491.8 266.8 490.2 266.4 485.6 262.9 482.8 260.7 478.8 256.4 476.7 253.4L473 247.7 472.3 214.6 471.6 181.5 385 181.5 298.4 181.5 297.7 215.2C297 247.7 296.9 249.1 293.7 254.1 284.7 268.6 263.8 272 251.1 261.1 240.9 252.4 240.7 251.6 239.9 214.5L239.2 181.5 174.6 181.2C100.8 180.8 102.9 180.5 97.2 191.8L94.1 197.9 94.1 544.1C94.1 785.9 94.6 891.4 95.6 894.1 97.4 898.8 102.1 904.1 105.8 905.6 107.3 906.2 285.6 906.8 501.9 906.8 884.4 906.9 895.3 906.9 899.4 904.3ZM240.5 760.8C240.2 759.8 240 740.2 240.2 717.1L240.6 675.2 297.6 674.8C342.3 674.6 354.8 674.9 355.7 676.2 356.9 678.2 357.2 757.1 356 760.4 355.2 762.3 348.9 762.5 298.2 762.5 253.6 762.5 241.1 762.2 240.5 760.8ZM444.1 760.8C443.7 759.9 443.6 740.2 443.8 717.1L444.1 675.2 501.9 675.2 559.7 675.2 559.7 718.5 559.7 761.8 502.2 762.2C456.7 762.5 444.6 762.2 444.1 760.8ZM647.9 761.6C647.4 761.1 647 741.3 647 717.6L647 674.5 704.7 674.5 762.5 674.5 762.5 718.5 762.5 762.5 705.7 762.5C674.4 762.5 648.4 762.1 647.9 761.6ZM239.9 573.4L239.9 530.1 298 530.5 356.1 530.8 356.1 573.4 356.1 616.1 298 616.4 239.9 616.8 239.9 573.4ZM443.5 573.5L443.5 530.1 501.9 530.1 560.4 530.1 560 573.1 559.7 616.1 501.6 616.4 443.5 616.8 443.5 573.5ZM647 573.4L647 530.1 704.7 530.1 762.5 530.1 762.5 573.4 762.5 616.8 704.7 616.8 647 616.8 647 573.4ZM239.9 427.7L239.9 384.3 298 384.7 356.1 385 356.1 427.7 356.1 470.3 298 470.7 239.9 471 239.9 427.7ZM443.5 427.7L443.5 384.3 501.6 384.7 559.7 385 559.7 427.7 559.7 470.3 501.6 470.7 443.5 471 443.5 427.7ZM647 427.7L647 384.3 704.7 384.3 762.5 384.3 762.5 427.7 762.5 471 704.7 471 647 471 647 427.7Z",
				"width": 1000
			},
			"search": [
				"small-calendar"
			]
		},
		{
			"uid": "52dd5e9bde6ee8da3b525d1322d49096",
			"css": "fire",
			"code": 59393,
			"src": "custom_icons",
			"selected": true,
			"svg": {
				"path": "M310.3 1000C243.7 861.3 279.1 781.9 330.4 707 386.5 625 400.9 543.8 400.9 543.8S445 601.2 427.4 690.8C505.3 604.1 520 465.9 508.2 413 684.3 536.1 759.6 802.5 658.1 1000 1197.6 694.8 792.3 238.1 721.8 186.7 745.3 238.1 749.7 325.2 702.2 367.5 621.8 62.5 423 0 423 0 446.5 157.3 337.7 329.2 232.8 457.7 229.2 395 225.2 351.8 192.3 291.7 184.9 405.7 97.8 498.5 74.2 612.7 42.3 767.3 98.1 880.4 310.3 1000Z",
				"width": 1000
			},
			"search": [
				"fire"
			]
		},
		{
			"uid": "5a583dc8aa2fee12b6c9d38afeb51f9c",
			"css": "thumbs-down-flipped",
			"code": 59414,
			"src": "custom_icons",
			"selected": true,
			"svg": {
				"path": "M88.6 672.8C127.7 683 219.5 682.9 353.9 686.4 347.5 715.8 346.1 742.2 346.1 789.1 346.1 901.3 427.7 1000 500 1000 551 1000 593.1 958.3 593.8 907 594.4 844 613.9 735.3 718.8 680.2 726.4 676.2 748.4 665.3 751.7 663.9L750 662.5C766.4 676.7 789.2 687.5 812.5 687.5L906.3 687.5C957.9 687.5 1000 645.4 1000 593.8L1000 93.8C1000 42.1 957.9 0 906.3 0L812.5 0C775.3 0 744.2 22.5 729.1 54 728.8 53.8 728.1 53.7 727.7 53.6 725.6 53 723.2 52.4 720.2 51.7 719.6 51.5 719.3 51.4 718.8 51.3 700.8 46.8 666.1 38.5 592 21.5 576.2 17.9 492.3 0 405.4 0L234.6 0C182.5 0 145 20 122.6 60.3 122.3 60.9 115.1 74.9 109.2 93.9 104.8 108.2 103.2 128.4 108.5 148.9 75 171.9 64.2 206.8 57.1 229.5 45.3 266.7 48.9 294.7 57.1 314.7 38.2 332.5 22.1 359.7 15.3 401.2 11.1 426.8 15.6 453.3 27.5 475.3 9.8 495.2 1.7 520.2 0.8 543.3L0.4 549.8C0.2 553.9 0 556.4 0 565.4 0 604.9 27.3 655.3 88.6 672.8ZM781.3 93.8C781.3 76.5 795.2 62.5 812.5 62.5L906.3 62.5C923.5 62.5 937.5 76.5 937.5 93.8L937.5 593.8C937.5 611 923.5 625 906.3 625L812.5 625C795.2 625 781.3 611 781.3 593.8L781.3 93.8ZM63.2 545.8C63.8 530.3 70.3 500 125 500 171.9 500 187.5 500 187.5 500 196.2 500 203.1 493 203.1 484.4 203.1 475.8 196.2 468.8 187.5 468.8 187.5 468.8 173.8 468.8 126.9 468.8 80.1 468.8 73.9 429.9 76.9 411.1 80.8 387.8 91.8 343.8 144.5 343.8 197.3 343.8 218.8 343.8 218.8 343.8 227.4 343.8 234.4 336.8 234.4 328.1 234.4 319.5 227.4 312.5 218.8 312.5 218.8 312.5 181.6 312.5 157.2 312.5 104.5 312.5 109.1 272.3 116.7 248.3 126.7 216.8 132.8 187.5 199.2 187.5 221.7 187.5 250.2 187.5 250.2 187.5 258.8 187.5 265.8 180.5 265.8 171.9 265.8 163.3 258.8 156.3 250.2 156.3 250.2 156.3 228.5 156.3 201.2 156.3 167 156.3 165.4 123.9 169 112.3 172.9 99.6 177.5 90.2 177.7 89.8 187.1 72.7 202.3 62.5 234.6 62.5L405.4 62.5C491.2 62.5 576.3 82 578.5 82.5 708.3 112.4 715.2 114.7 723.3 117 723.3 117 749.8 121.5 749.8 144.5L750 576.2C750 590.8 740.7 604.1 725.2 608.7 723.3 609.5 720.6 610.3 718.8 611.1 576 670.2 532.5 799.8 531.3 906.3 531.1 921.2 519.5 937.5 500 937.5 467 937.5 408.6 871.2 408.6 789.1 408.6 715 411.6 702.2 437.5 625 125 625 127.2 620.5 99.6 613.3 65.4 603.5 62.5 575.2 62.5 565.4 62.5 554.7 62.8 556.3 63.2 545.8ZM859.4 187.5C885.3 187.5 906.3 166.5 906.3 140.6 906.3 114.8 885.3 93.8 859.4 93.8 833.5 93.8 812.5 114.8 812.5 140.6 812.5 166.5 833.5 187.5 859.4 187.5ZM859.4 125C868 125 875 132 875 140.6 875 149.2 868 156.3 859.4 156.3 850.8 156.3 843.8 149.2 843.8 140.6 843.8 132 850.8 125 859.4 125Z",
				"width": 1000
			},
			"search": [
				"thumbs-down-flipped"
			]
		},
		{
			"uid": "2b84a2a982d802c6d17e14d8bac71be7",
			"css": "attach",
			"code": 59470,
			"src": "custom_icons",
			"selected": true,
			"svg": {
				"path": "M159 890.3C67.6 845.2 27.2 738.3 64.5 640.3 72.9 618.1 192.5 483.6 330.1 341.3 578.9 84.1 580.9 82.5 656 82.5 722.6 82.5 741.8 92.1 817.4 162.9 967.3 303 988.7 394.5 897.3 503.3 768.4 656.7 502.4 913.2 480.8 904.9 431.6 886 464.8 836.4 662 633.7 906.4 382.6 908.6 375 775.3 241.7 725.2 191.6 672.4 150.6 657.9 150.6 643.4 150.6 519.7 266.3 382.9 407.6 188.9 608.2 134.4 674.5 134.6 709.8 134.7 734.6 140.4 763.4 147.3 773.7 169 806.1 236.5 833.9 268.8 823.6 312.2 809.8 682.4 408.2 670.1 388.3 647.1 351.1 604.6 380 455.5 534.1 369.3 623.3 290.4 693.5 280.3 690.2 225 671.7 258.2 614.6 417.4 454.8 557.7 314 593.3 286.8 637.8 286.8 704.5 286.8 747.1 332.6 747.1 404.4 747.1 451.4 718.4 490.3 555.6 663.8 312.9 922.7 271.9 946 159 890.3Z",
				"width": 1000
			},
			"search": [
				"attach"
			]
		},
		{
			"uid": "abed25ba55a923aa162aa30606c68926",
			"css": "dialog",
			"code": 59469,
			"src": "custom_icons",
			"selected": true,
			"svg": {
				"path": "M404.1 216.2C180.9 216.2 0 355.3 0 527 0 611.2 43.6 687.7 114.3 743.6 110.2 800.7 96.5 870.5 56.7 908.1 135.9 908.1 216.8 858.5 268 819.7 310.5 831.4 356.3 837.8 404.1 837.8 627.2 837.8 808.1 698.8 808.1 527 808.1 355.3 627.2 216.2 404.1 216.2ZM941.1 557.3C975.1 511.8 994.6 459 994.6 402.7 994.6 231 813.7 91.9 590.5 91.9 492.3 91.9 402.3 118.9 332.3 163.6 365.3 157.4 399.7 154 435.1 154 675.5 154 870.3 307.1 870.3 495.9 870.3 570.3 840.1 639.3 788.7 695.3 839.7 734.1 920.8 783.8 1000 783.8 943.7 730.3 939.6 611.9 941.1 557.3Z",
				"width": 1000
			},
			"search": [
				"dialog"
			]
		},
		{
			"uid": "9d091a593ccaa4bf257a5ed9be93e82a",
			"css": "box",
			"code": 59468,
			"src": "custom_icons",
			"selected": true,
			"svg": {
				"path": "M46.3 912C32.6 892.4 28.9 854.3 28.9 732.9L28.9 578.8 119.9 335.1C170 201 216 85.1 222.1 77.4 230.4 66.9 299.8 63.4 498.9 63.4 738.1 63.4 766.2 65.3 781.1 83 790.3 93.7 836.4 203.7 883.7 327.3L969.6 552.1 969.6 726.9C969.6 870.9 966.5 904.8 952 919.3 936.6 934.7 879.9 936.9 499.1 936.9L63.8 936.9 46.3 912ZM658 716.8C671.3 704.7 678.4 682.6 678.4 653.3 678.4 584.1 700.7 567.3 792.2 567.3 864.4 567.3 868.8 565.8 868.3 542.1 868 528.3 836.4 433.8 798 332.1L728.2 147.4 503.2 144.3 278.1 141.3 209 328.7C170.9 431.8 138.8 526.4 137.5 538.9 135.5 559.6 142.5 562 213.4 565.1 308.5 569.2 331.3 585.5 331.3 649.4 331.3 727 347.9 735.3 502.9 735.3 612.4 735.3 641.3 731.8 658 716.8Z",
				"width": 1000
			},
			"search": [
				"box"
			]
		},
		{
			"uid": "10e7edf4c0f8e1e187702495d59057a1",
			"css": "open-book",
			"code": 59466,
			"src": "custom_icons",
			"selected": true,
			"svg": {
				"path": "M153 118C152.9 118 152.9 118 152.9 118 143.4 118 134.5 121.7 127.8 128.4 121 135.2 117.3 144.2 117.3 153.8V690.4C117.3 710.1 133.4 726.1 153.1 726.2 236.4 726.4 376 743.7 472.2 844.5V282.9C472.2 276.2 470.5 270 467.3 264.8 388.3 137.5 236.5 118.2 153 118ZM882.7 690.4V153.8C882.7 144.2 879 135.2 872.2 128.4 865.5 121.7 856.6 118 847.1 118 847.1 118 847.1 118 847 118 763.6 118.2 611.7 137.5 532.7 264.8 529.5 270 527.8 276.2 527.8 282.9V844.5C624.1 743.7 763.6 726.3 846.9 726.2 866.6 726.1 882.7 710.1 882.7 690.4ZM964.2 241.8H938.3V690.4C938.3 740.6 897.3 781.6 847 781.7 776.4 781.9 659.9 795.7 577.4 873.8 720.1 838.8 870.5 861.6 956.2 881.1 966.9 883.5 978 881 986.6 874.2 995.1 867.4 1000 857.2 1000 846.2V277.5C1000 257.8 983.9 241.8 964.2 241.8ZM61.7 690.4V241.8H35.8C16.1 241.8 0 257.8 0 277.5V846.2C0 857.2 4.9 867.3 13.4 874.2 22 881 33.1 883.5 43.8 881.1 129.5 861.5 279.9 838.8 422.6 873.8 340.1 795.7 223.6 781.9 153 781.7 102.7 781.6 61.7 740.6 61.7 690.4Z",
				"width": 1000
			},
			"search": [
				"open-book"
			]
		},
		{
			"uid": "dc4c38317142840cb949840aebb8d4b9",
			"css": "play-button",
			"code": 59467,
			"src": "custom_icons",
			"selected": true,
			"svg": {
				"path": "M858.8 480.4L168.3 4.2C161-0.8 151.5-1.4 143.7 2.7 135.9 6.8 131 14.9 131 23.8V976.2C131 985 135.9 993.2 143.7 997.3 147.2 999.1 151 1000 154.8 1000 159.5 1000 164.2 998.6 168.3 995.8L858.8 519.6C865.2 515.1 869.1 507.8 869.1 500S865.2 484.8 858.8 480.4Z",
				"width": 1000
			},
			"search": [
				"play-button"
			]
		},
		{
			"uid": "c709da589c923ba3c2ad48d9fc563e93",
			"css": "cancel",
			"code": 59409,
			"src": "entypo"
		}
	],
	"session": "0da001e349fc20f5c3a495639d2fd3e4"
}