<?xml version="1.0" encoding="UTF-8" standalone="no"?>
<svg
   xmlns:dc="http://purl.org/dc/elements/1.1/"
   xmlns:cc="http://creativecommons.org/ns#"
   xmlns:rdf="http://www.w3.org/1999/02/22-rdf-syntax-ns#"
   xmlns:svg="http://www.w3.org/2000/svg"
   xmlns="http://www.w3.org/2000/svg"
   version="1.1"
   id="svg3375"
   viewBox="0 0 2834.6457 0"
   height="800"
   width="800">
  <metadata
     id="metadata3380">
    <rdf:RDF>
      <cc:Work
         rdf:about="">
        <dc:format>image/svg+xml</dc:format>
        <dc:type
           rdf:resource="http://purl.org/dc/dcmitype/StillImage" />
        <dc:title></dc:title>
      </cc:Work>
    </rdf:RDF>
  </metadata>
  <g
     transform="translate(0,-352.3622)"
     id="layer1">
    <path
       id="path3394"
       d="m 216.20598,1114.0248 c -8.52163,-1.685 -13.6834,-4.6564 -19.74551,-11.3664 -6.96435,-7.7087 -8.33031,-13.4676 -8.32078,-35.0805 l 0.009,-18.1685 21.36855,-19.6219 c 11.7527,-10.7921 28.37429,-25.9961 36.93688,-33.78664 l 15.56836,-14.16465 150.90917,-0.37015 150.90844,-0.37014 0.72674,-139.02552 0.72674,-139.02554 30.52306,-27.97617 30.52306,-27.97617 0.38557,220.78043 0.38555,220.78045 -4.04759,7.9576 c -4.86214,9.559 -12.81328,15.4301 -23.69001,17.4929 -9.29067,1.7619 -374.23708,1.6866 -383.16695,-0.079 z m 201.76495,-35.0524 c 7.34754,-2.2014 16.53882,-10.1673 20.45502,-17.7279 4.79499,-9.2573 4.3917,-22.9256 -0.92817,-31.457 -4.82787,-7.7424 -8.25551,-10.8508 -16.09891,-14.5993 -7.4902,-3.5798 -19.91398,-3.6386 -27.6161,-0.1307 -13.94014,6.3488 -22.997,23.917 -19.6095,38.0377 4.86736,20.2894 24.24162,31.7364 43.79766,25.8773 z M 92.912576,1034.3157 c -7.31838,-1.9048 -13.04265,-5.5089 -18.70595,-11.7775 -5.74845,-6.3629 -7.42946,-9.7901 -9.640067,-19.6543 -1.541225,-6.87727 1.046185,-19.77225 5.256837,-26.1985 1.88468,-2.87639 29.20003,-28.53779 71.666154,-67.32671 2.06155,-1.88304 13.38778,-12.27395 25.16939,-23.09091 l 21.42112,-19.66722 0.38107,-228.36095 0.38107,-228.36097 4.37778,-6.48373 c 2.40778,-3.56603 7.20609,-8.47153 10.66293,-10.90109 l 6.28515,-4.41737 197.42276,0 197.42274,0 6.26189,4.40103 c 3.44405,2.42057 8.24236,7.21695 10.66293,10.65863 l 4.40103,6.2576 0.42599,24.22488 c 0.23428,13.32366 0.73329,25.11795 1.10889,26.20951 0.71995,2.09236 0.79862,2.02725 29.71492,-24.58592 33.19268,-30.54896 36.13506,-32.89623 44.55744,-35.5454 24.47696,-7.69895 48.89691,10.43748 48.79307,36.23809 -0.0715,17.77557 -0.17538,17.89881 -64.99489,77.14078 -8.74676,7.99414 -24.78234,22.71061 -35.6346,32.70328 -10.85225,9.99267 -34.35885,31.57684 -52.23684,47.96481 -17.87802,16.38798 -33.22133,30.45992 -34.09627,31.27099 -5.96101,5.52586 -74.39383,68.38483 -81.46859,74.83299 -4.82404,4.39677 -21.55684,19.76731 -37.18401,34.15676 -15.62715,14.38944 -43.42796,39.93651 -61.77956,56.77128 -18.35161,16.83476 -50.6993,46.52842 -71.88376,65.98591 -21.18446,19.45748 -45.35734,41.65719 -53.71753,49.3327 -8.36017,7.67548 -24.07877,22.13125 -34.93022,32.12392 -26.20608,24.13213 -84.81922,77.85491 -93.03715,85.27471 -3.59736,3.2479 -8.54439,6.9277 -10.99342,8.1773 -5.35421,2.7319 -20.020254,4.2201 -26.070304,2.6454 z M 259.2045,801.22788 c 3.69089,-3.3975 13.89674,-12.77092 22.67967,-20.82981 8.78294,-8.0589 25.14792,-23.10241 36.36661,-33.43001 11.21869,-10.32763 27.2433,-25.05745 35.61024,-32.73294 28.25597,-25.92089 92.07592,-84.52991 119.22838,-109.49331 14.83975,-13.64337 41.49292,-38.1359 59.22927,-54.42786 l 32.24788,-29.62176 0,-35.42796 0,-35.42796 -156.61236,0.3699 -156.61239,0.36988 -0.36911,178.41456 c -0.20302,98.12801 0.0562,178.41456 0.576,178.41456 0.51983,0 3.96493,-2.77978 7.65581,-6.17729 z"
       />
  </g>
</svg>
