<?xml version="1.0" encoding="UTF-8" standalone="no"?>
<svg
   xmlns:dc="http://purl.org/dc/elements/1.1/"
   xmlns:cc="http://creativecommons.org/ns#"
   xmlns:rdf="http://www.w3.org/1999/02/22-rdf-syntax-ns#"
   xmlns:svg="http://www.w3.org/2000/svg"
   xmlns="http://www.w3.org/2000/svg"
   version="1.1"
   id="svg3396"
   viewBox="0 0 850.00001 850.00001"
   height="850"
   width="850">
  <metadata
     id="metadata3401">
    <rdf:RDF>
      <cc:Work
         rdf:about="">
        <dc:format>image/svg+xml</dc:format>
        <dc:type
           rdf:resource="http://purl.org/dc/dcmitype/StillImage" />
        <dc:title></dc:title>
      </cc:Work>
    </rdf:RDF>
  </metadata>
  <g
     transform="translate(0,-202.36216)"
     id="layer1">
    <path
       id="path3425"
       d="m 86.272695,1022.2396 c -25.953102,-4.3359 -46.261307,-23.22672 -53.203399,-49.49005 -2.05012,-7.756 -2.141577,-20.94007 -2.132857,-307.43085 0.0082,-285.1937 0.109412,-299.74625 2.132483,-308.19922 5.13745,-21.4655 21.197053,-39.21703 42.410659,-46.87874 7.340911,-2.6513 8.470257,-2.70607 67.665849,-3.28078 l 60.20033,-0.58447 0.58447,-28.05452 c 0.56292,-27.01975 0.68909,-28.23719 3.42081,-33.00647 8.11548,-14.16875 26.23293,-16.8638 38.47981,-5.72402 6.22751,5.66454 6.56885,7.47432 7.1948,38.14602 l 0.58447,28.63899 73.64314,0 73.64313,0 0.58447,-28.05452 c 0.56516,-27.12741 0.67945,-28.22043 3.45885,-33.07417 3.52171,-6.15008 11.39319,-11.55983 18.33484,-12.60079 9.84268,-1.47601 20.9657,4.94348 25.40037,14.65946 2.14968,4.70977 2.48725,8.28767 3.03665,32.18444 l 0.61812,26.88558 73.05866,0 73.05866,0 0.58447,-28.05452 c 0.64046,-30.74129 0.82527,-31.61065 8.26627,-38.88568 3.81179,-3.72666 12.14293,-7.28741 17.05049,-7.28741 4.38468,0 12.40243,3.59797 16.42767,7.37196 7.0037,6.56659 7.35099,8.3554 7.35099,37.8673 0,19.26048 0.39335,27.16076 1.40273,28.1701 1.05228,1.05224 15.4951,1.40272 57.80495,1.40272 36.38157,0 58.60099,0.45516 62.59666,1.28229 23.66902,4.89967 44.52323,25.71441 50.2785,50.18352 1.20623,5.12851 1.50454,65.95475 1.50454,306.81387 0,284.93221 -0.10754,300.80887 -2.09006,308.01533 -5.58437,20.30115 -19.37153,36.54973 -37.73182,44.46823 -14.06396,6.0656 2.25138,5.8064 -356.2589,5.6595 -183.3353,-0.075 -336.047659,-0.5896 -339.360805,-1.1431 z M 764.52981,971.05072 c 1.98018,-1.20752 4.48183,-4.05307 5.55924,-6.32344 1.81898,-3.83328 1.93751,-25.36583 1.65989,-301.64745 l -0.29902,-297.5195 -3.35193,-3.4986 c -1.84353,-1.92424 -4.73665,-4.07 -6.42916,-4.76837 -2.1028,-0.86768 -20.47536,-1.1722 -58.01734,-0.96164 l -54.94012,0.30813 -0.58447,28.639 c -0.53362,26.14831 -0.79266,28.99339 -2.97845,32.7141 -7.84031,13.34626 -28.15342,15.64711 -38.71525,4.38524 -6.6958,-7.13961 -7.40172,-10.95868 -7.40172,-40.04535 l 0,-26.27746 -73.53372,0 -73.5338,0 -0.40161,27.21205 c -0.39114,26.50348 -0.47936,27.36307 -3.38782,33.01182 -1.80956,3.5145 -4.96004,7.18577 -7.99555,9.31728 -4.52319,3.17615 -5.88722,3.51752 -14.05517,3.51752 -8.13004,0 -9.48498,-0.33502 -13.38357,-3.30916 -2.38577,-1.82004 -5.76362,-5.46243 -7.50633,-8.0942 l -3.16858,-4.78504 -0.58447,-28.1429 -0.58447,-28.1429 -73.64313,0 -73.64314,0 -0.58447,28.639 c -0.56317,27.59546 -0.68554,28.80158 -3.35854,33.10121 -7.64282,12.29372 -25.4108,15.18086 -36.26237,5.89232 -8.65689,-7.40997 -8.81839,-8.08463 -9.47451,-39.578 l -0.58447,-28.05453 -54.94011,-0.29665 c -62.686132,-0.33849 -60.911251,-0.58194 -65.752796,9.01914 l -2.630112,5.21568 0,294.24874 c 0,205.58078 0.375709,295.24035 1.246802,297.53943 1.502437,3.96535 5.48964,8.45016 8.689177,9.77357 1.285832,0.53186 152.780269,0.99839 336.654319,1.03675 325.09854,0.0678 334.41568,0.009 337.91677,-2.12579 z M 204.46045,849.04316 c -0.31092,-0.81029 -0.42592,-17.5115 -0.25554,-37.1138 l 0.30979,-35.64055 48.43384,-0.30537 c 37.97129,-0.23942 48.63602,0.0131 49.36976,1.16894 1.08144,1.70356 1.3272,68.73962 0.26218,71.51502 -0.6312,1.64488 -6.05538,1.84901 -49.1321,1.84901 -37.8715,0 -48.54577,-0.32101 -48.98793,-1.47325 z m 173.00785,0.0129 c -0.31365,-0.81735 -0.43086,-17.52435 -0.26048,-37.12665 l 0.3098,-35.64056 49.09542,0 49.09542,0 0,36.82157 0,36.82156 -48.83495,0.30508 c -38.64997,0.24146 -48.95387,-0.005 -49.40521,-1.18101 z m 173.24709,0.68111 c -0.42865,-0.42862 -0.77933,-17.26133 -0.77933,-37.40605 l 0,-36.62674 49.09542,0 49.09542,0 0,37.40604 0,37.40603 -48.31609,0 c -26.57395,0 -48.66689,-0.35068 -49.09542,-0.77929 z m -346.78516,-159.94978 0,-36.84694 49.38766,0.30493 49.38765,0.30492 0,36.23709 0,36.2371 -49.38765,0.30492 -49.38766,0.30493 0,-36.84695 z m 173.00292,0.0128 0,-36.83425 49.69654,0 49.69655,0 -0.30895,36.52933 -0.30883,36.52933 -49.38766,0.30492 -49.38765,0.30493 0,-36.83426 z m 173.00291,-0.0128 0,-36.82156 49.09542,0 49.09542,0 0,36.82156 0,36.82157 -49.09542,0 -49.09542,0 0,-36.82157 z m -346.00583,-123.90749 0,-36.84694 49.38766,0.30493 49.38765,0.30492 0,36.23709 0,36.2371 -49.38765,0.30492 -49.38766,0.30493 0,-36.84695 z m 173.00292,0 0,-36.84694 49.38765,0.30493 49.38766,0.30492 0,36.23709 0,36.2371 -49.38766,0.30492 -49.38765,0.30493 0,-36.84695 z m 173.00291,0 0,-36.82156 49.09542,0 49.09542,0 0,36.82156 0,36.82157 -49.09542,0 -49.09542,0 0,-36.82157 z"
       />
  </g>
</svg>
